<svg width="1062" height="127" viewBox="0 0 1062 127" fill="none" xmlns="http://www.w3.org/2000/svg">
<g clip-path="url(#clip0)">
<path d="M107.4 126.65H7.09C6.1594 126.651 5.23767 126.469 4.37753 126.114C3.51739 125.759 2.73572 125.237 2.07722 124.58C1.41872 123.922 0.896316 123.141 0.539888 122.282C0.18346 121.422 -9.28251e-07 120.501 0 119.57L0 53C0.000190607 51.6022 0.296099 50.2202 0.868291 48.9448C1.44048 47.6695 2.27601 46.5296 3.32 45.6L52.53 1.79004C53.8294 0.635882 55.507 -0.00158691 57.245 -0.00158691C58.983 -0.00158691 60.6606 0.635882 61.96 1.79004L111.17 45.63C112.214 46.5596 113.05 47.6995 113.622 48.9748C114.194 50.2502 114.49 51.6322 114.49 53.03V119.57C114.49 120.501 114.307 121.422 113.95 122.282C113.594 123.141 113.071 123.922 112.413 124.58C111.754 125.237 110.973 125.759 110.112 126.114C109.252 126.469 108.331 126.651 107.4 126.65V126.65Z" fill="#5C7F4A"/>
<path d="M63.86 60.53C52.53 58.06 42.35 79.46 46.47 88.61C47.0931 89.9303 48.1992 90.9612 49.56 91.49C63.68 97.2 79.2 70.72 66.43 61.7C65.6598 61.1428 64.786 60.745 63.86 60.53V60.53Z" stroke="white" stroke-width="1.54" stroke-miterlimit="10"/>
<path d="M59.34 46.0001C59.5132 45.9899 59.6868 45.9899 59.86 46.0001C64.25 46.4101 69.61 49.4701 74.2 54.1901C78.79 58.9101 81.58 64.3101 81.58 68.5501C81.58 69.0901 81.58 69.7301 81.58 70.4401C81.66 77.4401 81.83 92.0301 75.65 96.0001C71.76 98.5001 59.81 101.3 49.65 101.3C44.86 101.3 38.65 100.66 36.04 97.6501C33.43 94.6401 34.04 74.0201 36.38 68.3501C39.13 61.6801 51.38 45.9701 59.38 45.9701L59.34 46.0001ZM59.38 45.7201C51.23 45.7501 39 61.4001 36.15 68.2901C33.85 73.9001 33.15 94.6801 35.85 97.8401C38.17 100.55 43.53 101.58 49.65 101.58C59.71 101.58 71.81 98.8101 75.8 96.2401C82.72 91.7901 81.8 74.6001 81.8 68.5801C81.8 59.3501 69.24 46.6501 59.85 45.7801C59.6701 45.7701 59.4898 45.7701 59.31 45.7801L59.38 45.7201Z" fill="white"/>
<path d="M59.88 45.7801C69.27 46.6501 81.83 59.3501 81.83 68.5801C81.83 74.5801 82.72 91.7901 75.83 96.2401C69.38 100.37 42 105 35.85 97.8401C33.13 94.6801 33.85 73.9001 36.15 68.2901C39.05 61.2401 51.79 45.0001 59.88 45.7801Z" stroke="white" stroke-width="1.16" stroke-miterlimit="10"/>
<path d="M59.36 30.9301C60.0588 30.9083 60.7504 31.0777 61.36 31.4201C68.12 34.7501 83.8 48.0001 90.73 58.7701C94.41 64.4801 94.41 94.0001 88.29 102.61C83.43 109.45 61.13 109.68 46.37 109.84C43.88 109.84 41.53 109.84 39.59 109.94H39.07C37.78 109.94 36.57 110.01 35.4 110.01C29.92 110.01 26.17 109.15 24.4 104.87C23.4 102.42 22.81 71.16 23.7 65.5201C24.21 62.33 30.54 53.6501 38.13 45.7501C47 36.4801 55 30.9301 59.36 30.9301ZM59.36 30.4301C48.87 30.4301 24.23 58.7401 23.17 65.4301C22.29 70.9701 22.83 102.52 23.9 105.05C25.9 109.76 30.06 110.5 35.4 110.5C36.73 110.5 38.14 110.5 39.6 110.41C52.86 110.03 82.83 111.13 88.7 102.87C95.05 93.9301 94.77 64.0901 91.15 58.4701C84.33 47.8801 68.51 34.3801 61.55 31.0001C60.8818 30.6266 60.1253 30.44 59.36 30.4601V30.4301Z" fill="white"/>
<path d="M61.55 31C68.55 34.41 84.33 47.91 91.15 58.53C94.77 64.15 95.05 93.99 88.7 102.93C82.83 111.19 52.86 110.09 39.6 110.47C32.28 110.68 26.38 110.99 23.9 105.11C22.83 102.58 22.29 71.03 23.17 65.49C24.32 58.21 52.88 25.86 61.55 31Z" stroke="white" stroke-width="0.77" stroke-miterlimit="10"/>
<path d="M57.8 16C58.8834 15.9904 59.9391 16.3423 60.8 17C70.1 25.13 77.33 31 83.15 35.62C103.59 52 103.59 52 102.49 80.36C102.19 88.2 101.81 97.97 101.74 110.82C101.654 112.103 101.111 113.312 100.211 114.229C99.3101 115.146 98.1108 115.711 96.83 115.82C82.46 116.63 48.33 118 33.11 118.28H31.66C30.54 118.28 29.26 118.35 27.87 118.35C18.22 118.35 13.25 116.35 12.69 112.23C10.88 98.9 11.3 66.41 12.33 59.36C13.49 51.36 45.89 23.72 54.07 17.36C55.1284 16.5061 56.4404 16.0278 57.8 16ZM57.8 15.25C56.2772 15.2707 54.804 15.7946 53.61 16.74C46.91 21.93 12.85 50.5 11.61 59.21C10.54 66.56 10.19 99.21 11.97 112.28C12.78 118.28 21.39 119.05 27.89 119.05C29.97 119.05 31.82 118.96 33.15 118.94C48.02 118.66 81.92 117.32 96.89 116.48C98.3522 116.355 99.7217 115.712 100.752 114.667C101.782 113.622 102.406 112.244 102.51 110.78C102.93 37.31 113.39 61.78 61.29 16.42C60.2968 15.6529 59.075 15.2409 57.82 15.25H57.8Z" fill="white"/>
<path d="M61.27 16.4601C113.37 61.8101 102.91 37.3501 102.49 110.82C102.386 112.284 101.762 113.662 100.732 114.707C99.7017 115.752 98.3322 116.395 96.87 116.52C81.87 117.36 48 118.7 33.13 118.98C27.66 119.08 13.02 120.17 11.95 112.32C10.17 99.2601 10.52 66.6001 11.59 59.2501C12.85 50.5401 46.91 21.9701 53.59 16.7801C54.6499 15.8756 55.9825 15.3525 57.3748 15.2945C58.767 15.2365 60.1385 15.6469 61.27 16.4601V16.4601Z" stroke="white" stroke-width="0.39" stroke-miterlimit="10"/>
<path d="M138.56 53.27H150.47C150.619 53.27 150.767 53.2996 150.905 53.357C151.042 53.4144 151.167 53.4985 151.273 53.6045C151.378 53.7105 151.461 53.8363 151.517 53.9745C151.573 54.1128 151.601 54.2608 151.6 54.41V79.84H182.26V54.41C182.26 54.1077 182.38 53.8177 182.594 53.6039C182.808 53.3901 183.098 53.27 183.4 53.27H195.3C195.602 53.27 195.892 53.3901 196.106 53.6039C196.32 53.8177 196.44 54.1077 196.44 54.41V121.41C196.437 121.711 196.316 121.998 196.103 122.21C195.889 122.421 195.601 122.54 195.3 122.54H183.4C183.099 122.54 182.811 122.421 182.597 122.21C182.384 121.998 182.263 121.711 182.26 121.41V92.65H151.6V121.44C151.6 121.74 151.481 122.027 151.269 122.239C151.057 122.451 150.77 122.57 150.47 122.57H138.56C138.261 122.567 137.975 122.448 137.764 122.236C137.552 122.025 137.433 121.739 137.43 121.44V54.44C137.426 54.2886 137.452 54.138 137.507 53.9969C137.562 53.8557 137.644 53.7269 137.75 53.618C137.855 53.5091 137.981 53.4222 138.12 53.3625C138.259 53.3027 138.409 53.2713 138.56 53.27V53.27Z" fill="#272726"/>
<path d="M230.46 69.44C245.68 69.23 258.7 81.73 258.39 96.53C258.7 111.34 245.58 124.04 230.39 123.72C215.17 124.04 202.39 111.34 202.67 96.53C202.32 81.73 215.23 69.13 230.46 69.44ZM230.46 82.36C222.58 82.36 217.02 88.36 217.02 96.64C217.02 104.72 222.58 110.71 230.46 110.71C238.12 110.71 243.9 104.71 243.9 96.64C243.9 88.57 238.12 82.36 230.46 82.36Z" fill="#272726"/>
<path d="M343.14 122.57H331.23C330.931 122.567 330.645 122.447 330.434 122.236C330.223 122.025 330.103 121.739 330.1 121.44V92.33C330.1 86.14 326.43 82.25 320.86 82.25C315.29 82.25 311.31 86.25 311.31 92.02V121.44C311.307 121.741 311.186 122.028 310.973 122.24C310.759 122.451 310.471 122.57 310.17 122.57H298.27C297.969 122.57 297.681 122.451 297.467 122.24C297.254 122.028 297.133 121.741 297.13 121.44V92.33C297.13 86.14 293.46 82.25 287.89 82.25C282.12 82.25 278.34 86.14 278.34 92.33V121.44C278.337 121.741 278.216 122.028 278.003 122.24C277.789 122.451 277.501 122.57 277.2 122.57H265.3C264.999 122.57 264.711 122.451 264.497 122.24C264.284 122.028 264.163 121.741 264.16 121.44V71.73C264.16 71.5808 264.19 71.433 264.247 71.2952C264.304 71.1575 264.389 71.0325 264.495 70.9274C264.601 70.8224 264.726 70.7393 264.865 70.6831C265.003 70.6269 265.151 70.5987 265.3 70.6H276.05C276.35 70.6 276.637 70.7191 276.849 70.931C277.061 71.1429 277.18 71.4303 277.18 71.73V75.22C280.65 71.54 285.9 69.44 291.88 69.44C298.71 69.44 303.88 71.96 307.32 76.9C309.505 74.49 312.182 72.5769 315.17 71.2899C318.158 70.003 321.387 69.3722 324.64 69.44C336.82 69.44 344.27 77.74 344.27 90.34V121.44C344.27 121.74 344.151 122.027 343.939 122.239C343.727 122.451 343.44 122.57 343.14 122.57V122.57Z" fill="#272726"/>
<path d="M363.91 101.36C365.59 107.97 370.91 111.65 378.51 111.65C383.371 111.607 388.094 110.024 392 107.13C392.127 107.038 392.272 106.973 392.426 106.94C392.579 106.907 392.738 106.906 392.892 106.937C393.046 106.968 393.192 107.03 393.321 107.12C393.449 107.21 393.558 107.326 393.64 107.46L398.36 115.21C398.504 115.446 398.556 115.727 398.508 115.999C398.461 116.271 398.315 116.517 398.1 116.69C392.457 121.307 385.391 123.829 378.1 123.83C362.03 124.14 349.33 111.65 349.64 96.64C349.589 93.0539 350.257 89.4939 351.606 86.1707C352.955 82.8476 354.957 79.8287 357.493 77.2926C360.029 74.7566 363.048 72.755 366.371 71.4062C369.694 70.0574 373.254 69.3888 376.84 69.44C391.22 69.44 401.3 80.05 401.3 93.59C401.292 96.2079 400.977 98.8158 400.36 101.36H363.91ZM387.54 91.36C387.43 84.95 382.54 80.86 376.3 80.86C370.3 80.86 365.49 84.95 363.91 91.36H387.54Z" fill="#272726"/>
<path d="M465.23 52C470.775 51.9032 476.262 53.1376 481.232 55.5996C486.201 58.0617 490.508 61.6797 493.79 66.15C493.962 66.3841 494.037 66.6747 494.002 66.9627C493.967 67.2507 493.823 67.5144 493.6 67.7L485.26 74.56C485.141 74.6559 485.004 74.7271 484.857 74.7695C484.711 74.8119 484.557 74.8247 484.405 74.807C484.253 74.7893 484.107 74.7415 483.974 74.6665C483.84 74.5915 483.724 74.4907 483.63 74.37C481.497 71.4459 478.689 69.0799 475.446 67.473C472.202 65.8661 468.619 65.0658 465 65.14C459.531 65.1321 454.252 67.145 450.176 70.7921C446.101 74.4393 443.517 79.4636 442.92 84.9C441.42 99.9 451.1 111.13 465.86 111.13C473.86 111.13 480.25 107.87 484.13 102.52V96.85H466.13C465.829 96.8474 465.542 96.7261 465.33 96.5126C465.119 96.2991 465 96.0107 465 95.71V85.71C465.003 85.4094 465.124 85.122 465.337 84.9104C465.551 84.6988 465.839 84.58 466.14 84.58H497.14C497.441 84.58 497.729 84.6988 497.943 84.9104C498.156 85.122 498.277 85.4094 498.28 85.71V105C495.056 110.67 490.379 115.379 484.73 118.64C478.821 122.129 472.061 123.912 465.2 123.79C444.84 124.21 427.83 107.72 428.14 87.88C427.75 68 444.76 51.7 465.23 52Z" fill="#5C7F4A"/>
<path d="M536.32 83.0901H532.54C524.03 83.0901 518.54 87.7101 518.54 96.6401V121.44C518.537 121.741 518.416 122.028 518.203 122.24C517.989 122.451 517.701 122.57 517.4 122.57H505.53C505.231 122.567 504.945 122.448 504.734 122.236C504.523 122.025 504.403 121.739 504.4 121.44V71.7301C504.4 71.4304 504.519 71.143 504.731 70.9311C504.943 70.7192 505.23 70.6001 505.53 70.6001H516.29C516.59 70.6001 516.877 70.7192 517.089 70.9311C517.301 71.143 517.42 71.4304 517.42 71.7301V76.7901C519.126 74.646 521.3 72.9198 523.775 71.7431C526.249 70.5664 528.96 69.9703 531.7 70.0001C533.263 69.9746 534.821 70.187 536.32 70.6301V83.0901Z" fill="#5C7F4A"/>
<path d="M563.72 69.44C579 69.23 592 81.73 591.65 96.53C591.97 111.34 578.84 124.04 563.65 123.72C548.42 124.04 535.65 111.34 535.93 96.53C535.58 81.73 548.5 69.13 563.72 69.44ZM563.72 82.36C555.85 82.36 550.28 88.36 550.28 96.64C550.28 104.72 555.85 110.71 563.72 110.71C571.39 110.71 577.16 104.71 577.16 96.64C577.16 88.57 571.39 82.36 563.72 82.36Z" fill="#5C7F4A"/>
<path d="M676.29 72.2001L652.87 123.83H648.25L633.34 93.5901L618.34 123.83H613.7L590.28 72.2001C590.202 72.03 590.168 71.8433 590.18 71.6567C590.192 71.4701 590.25 71.2894 590.349 71.1308C590.448 70.9722 590.585 70.8408 590.748 70.7481C590.91 70.6555 591.093 70.6046 591.28 70.6001H603.68C603.897 70.6063 604.107 70.6759 604.285 70.8003C604.463 70.9247 604.6 71.0984 604.68 71.3001L616.68 100.21L630.85 69.4401H635.58L650 99.5801L661.79 71.2901C661.872 71.0903 662.01 70.9186 662.187 70.7961C662.365 70.6736 662.574 70.6054 662.79 70.6001H675.19C675.385 70.5873 675.581 70.6256 675.757 70.711C675.933 70.7965 676.084 70.9262 676.195 71.0875C676.306 71.2488 676.373 71.4361 676.389 71.6312C676.406 71.8262 676.372 72.0222 676.29 72.2001V72.2001Z" fill="#5C7F4A"/>
<path d="M726.7 122.57H714.9C714.601 122.567 714.315 122.447 714.104 122.236C713.893 122.025 713.773 121.739 713.77 121.44V92.23C713.77 86.23 709.88 82.15 704.11 82.15C698.34 82.15 694.24 86.24 694.24 92.23V121.44C694.237 121.741 694.116 122.028 693.903 122.24C693.689 122.451 693.401 122.57 693.1 122.57H681.2C680.899 122.57 680.611 122.451 680.397 122.24C680.184 122.028 680.063 121.741 680.06 121.44V71.73C680.06 71.5808 680.09 71.433 680.147 71.2952C680.204 71.1575 680.289 71.0325 680.395 70.9274C680.501 70.8224 680.626 70.7393 680.765 70.6831C680.903 70.6269 681.051 70.5987 681.2 70.6H692C692.149 70.5987 692.296 70.627 692.434 70.6833C692.572 70.7396 692.697 70.8228 692.802 70.928C692.907 71.0332 692.99 71.1583 693.047 71.296C693.103 71.4337 693.131 71.5812 693.13 71.73V75.32C695.157 73.3856 697.545 71.8704 700.159 70.8614C702.772 69.8523 705.559 69.3693 708.36 69.44C720.43 69.44 727.89 77.74 727.89 90.34V121.44C727.889 121.593 727.857 121.745 727.796 121.885C727.735 122.026 727.646 122.152 727.535 122.258C727.424 122.363 727.293 122.445 727.149 122.499C727.006 122.553 726.853 122.577 726.7 122.57V122.57Z" fill="#5C7F4A"/>
<path d="M756.17 53.27H768.07C768.372 53.27 768.662 53.3901 768.876 53.6039C769.09 53.8177 769.21 54.1077 769.21 54.41V79.84H799.87V54.41C799.869 54.2608 799.897 54.1128 799.953 53.9745C800.009 53.8363 800.092 53.7105 800.197 53.6045C800.302 53.4985 800.428 53.4144 800.565 53.357C800.703 53.2996 800.851 53.27 801 53.27H812.91C813.204 53.2829 813.481 53.4087 813.684 53.6211C813.887 53.8335 814 54.1161 814 54.41V121.41C813.997 121.709 813.878 121.995 813.666 122.206C813.455 122.418 813.169 122.537 812.87 122.54H801C800.7 122.54 800.413 122.421 800.201 122.209C799.989 121.997 799.87 121.71 799.87 121.41V92.65H769.21V121.44C769.207 121.741 769.086 122.028 768.873 122.24C768.659 122.451 768.371 122.57 768.07 122.57H756.17C755.869 122.57 755.581 122.451 755.367 122.24C755.154 122.028 755.033 121.741 755.03 121.44V54.44C755.026 54.2878 755.053 54.1363 755.108 53.9945C755.164 53.8527 755.247 53.7235 755.353 53.6145C755.459 53.5054 755.586 53.4187 755.727 53.3596C755.867 53.3004 756.018 53.27 756.17 53.27V53.27Z" fill="#272726"/>
<path d="M848.06 69.44C863.29 69.23 876.31 81.73 875.99 96.53C876.31 111.34 863.18 124.04 847.99 123.72C832.76 124.04 819.99 111.34 820.27 96.53C819.92 81.73 832.84 69.13 848.06 69.44ZM848.06 82.36C840.19 82.36 834.62 88.36 834.62 96.64C834.62 104.72 840.19 110.71 848.06 110.71C855.73 110.71 861.5 104.71 861.5 96.64C861.5 88.57 855.73 82.36 848.06 82.36Z" fill="#272726"/>
<path d="M960.75 122.57H948.84C948.539 122.57 948.251 122.451 948.037 122.24C947.824 122.028 947.703 121.741 947.7 121.44V92.33C947.7 86.14 944.03 82.25 938.47 82.25C932.91 82.25 928.91 86.25 928.91 92.02V121.44C928.907 121.739 928.788 122.025 928.576 122.236C928.365 122.448 928.079 122.567 927.78 122.57H915.87C915.57 122.57 915.283 122.451 915.071 122.239C914.859 122.027 914.74 121.74 914.74 121.44V92.33C914.74 86.14 911.06 82.25 905.5 82.25C899.72 82.25 895.94 86.14 895.94 92.33V121.44C895.937 121.739 895.817 122.025 895.606 122.236C895.395 122.448 895.109 122.567 894.81 122.57H882.9C882.601 122.567 882.315 122.448 882.104 122.236C881.893 122.025 881.773 121.739 881.77 121.44V71.73C881.77 71.4303 881.889 71.1429 882.101 70.931C882.313 70.7191 882.6 70.6 882.9 70.6H893.65C893.799 70.5987 893.947 70.6269 894.086 70.6831C894.224 70.7393 894.35 70.8224 894.456 70.9274C894.561 71.0325 894.646 71.1575 894.703 71.2952C894.76 71.433 894.79 71.5808 894.79 71.73V75.22C898.25 71.54 903.5 69.44 909.49 69.44C916.31 69.44 921.49 71.96 924.92 76.9C927.107 74.492 929.784 72.5804 932.772 71.2936C935.759 70.0068 938.988 69.3748 942.24 69.44C954.42 69.44 961.88 77.74 961.88 90.34V121.44C961.877 121.739 961.757 122.025 961.546 122.236C961.335 122.448 961.049 122.567 960.75 122.57V122.57Z" fill="#272726"/>
<path d="M981.52 101.36C983.2 107.97 988.52 111.65 996.11 111.65C1000.97 111.607 1005.69 110.024 1009.6 107.13C1009.73 107.038 1009.87 106.973 1010.03 106.94C1010.18 106.907 1010.34 106.906 1010.49 106.937C1010.65 106.968 1010.79 107.03 1010.92 107.12C1011.05 107.21 1011.16 107.326 1011.24 107.46L1015.96 115.21C1016.11 115.446 1016.16 115.727 1016.11 115.999C1016.06 116.272 1015.92 116.518 1015.7 116.69C1010.06 121.31 1002.99 123.833 995.7 123.83C979.64 124.14 966.93 111.65 967.25 96.64C967.198 93.0544 967.865 89.4946 969.213 86.1715C970.56 82.8484 972.561 79.8294 975.096 77.2932C977.631 74.757 980.65 72.7553 983.972 71.4063C987.295 70.0574 990.854 69.3888 994.44 69.44C1008.83 69.44 1018.91 80.05 1018.91 93.59C1018.9 96.2083 1018.58 98.8162 1017.96 101.36H981.52ZM1005.14 91.36C1005.04 84.95 1000.14 80.86 993.91 80.86C987.91 80.86 983.09 84.95 981.52 91.36H1005.14Z" fill="#272726"/>
<path d="M1026.29 106.1C1026.39 105.971 1026.51 105.864 1026.66 105.788C1026.8 105.712 1026.96 105.667 1027.12 105.658C1027.28 105.648 1027.45 105.674 1027.6 105.733C1027.75 105.792 1027.89 105.883 1028 106C1032.28 110.13 1036.91 112.16 1041.72 112.16C1045.5 112.16 1048.33 110.69 1048.33 107.85C1048.33 105.65 1046.86 104.85 1042.98 103.13L1037.41 100.82C1027.82 97.0001 1023.2 92.6501 1023.2 85.0001C1023.2 75.2401 1030.97 69.4601 1042.31 69.4601C1049.7 69.4601 1055.67 71.8401 1060.31 76.4601C1060.5 76.66 1060.62 76.9248 1060.63 77.2036C1060.64 77.4824 1060.55 77.7554 1060.37 77.9701L1054.61 84.9701C1054.51 85.086 1054.39 85.1815 1054.26 85.2509C1054.12 85.3204 1053.98 85.3623 1053.83 85.3744C1053.68 85.3865 1053.52 85.3685 1053.38 85.3214C1053.24 85.2743 1053.1 85.1991 1052.99 85.1001C1050.01 82.4631 1046.18 81.0049 1042.2 81.0001C1038.74 81.0001 1036.64 82.2601 1036.64 84.6801C1036.64 86.6801 1038 87.6201 1042.1 89.3001L1047.1 91.4001C1057.18 95.4901 1061.69 99.5901 1061.69 107.25C1061.69 112.39 1059.8 116.49 1055.92 119.43C1052.04 122.37 1047.31 123.84 1041.43 123.84C1032.65 123.84 1025.23 120.35 1020.43 114.49C1020.26 114.287 1020.17 114.032 1020.17 113.77C1020.17 113.508 1020.26 113.253 1020.43 113.05L1026.29 106.1Z" fill="#272726"/>
</g>
<defs>
<clipPath id="clip0">
<rect width="1061.73" height="126.65" fill="white"/>
</clipPath>
</defs>
</svg>
