<svg width="40" height="40" viewBox="0 0 40 40" fill="none" xmlns="http://www.w3.org/2000/svg">
<path d="M0 0V40H40V0H0ZM9.80957 7.86377C11.3939 7.8816 12.9546 8.9746 13.0225 10.8667C13.0563 12.5492 11.5901 13.8307 9.76807 13.8696H9.72413C8.15557 13.8515 6.62373 12.7311 6.55273 10.8667C6.5751 9.20293 7.97363 7.90323 9.80957 7.86377ZM26.8066 15.813C28.5485 15.8238 30.1924 16.3405 31.543 17.7173C32.9465 19.2827 33.3971 21.441 33.4473 23.6353V33.6157H27.6953V24.314C27.6825 22.5706 27.0853 20.4514 24.7778 20.3809C23.4255 20.3953 22.4718 21.1811 21.8188 22.4951C21.6406 22.9181 21.6149 23.4042 21.6064 23.8892V33.6157H15.8569C15.8789 28.7532 15.9092 23.891 15.8984 19.0283C15.8984 17.6471 15.8851 16.717 15.8569 16.2378H21.6064V18.689C22.0945 17.9949 22.6357 17.3366 23.3618 16.8066C24.3466 16.1038 25.5296 15.8344 26.8066 15.813ZM6.8921 16.2378H12.6416V33.6157H6.8921V16.2378Z" fill="#63954C"/>
</svg>
