<svg width="65" height="65" viewBox="0 0 65 65" fill="none" xmlns="http://www.w3.org/2000/svg">
<path d="M63.6537 17.05H62.306V13.4991C62.306 13.1047 62.0049 12.7914 61.6348 12.7914H56.1552V6.13142C56.1552 4.95382 55.2506 4 54.1351 4H10.8623C9.74542 4 8.84079 4.95382 8.84079 6.13142V12.79H3.36388C2.99247 12.79 2.69137 13.1061 2.69137 13.5005V17.0514H1.34635C0.602208 17.0514 0 17.6878 0 18.4724V25.9295C0 26.7141 0.602208 27.3505 1.34635 27.3505H2.69137V30.9015C2.69137 31.2944 2.99247 31.6105 3.36388 31.6105H8.84079V37.8537H8.79038C7.67351 37.8537 6.7702 38.8076 6.7702 39.9824V48.2675C6.7702 48.9723 7.09916 49.5919 7.59923 49.9807C7.09916 50.3681 6.7702 50.9919 6.7702 51.6968V55.0239C6.7702 56.2015 7.67484 57.154 8.79038 57.154H9.80379V60.5819C9.80379 61.3664 10.7177 62 11.8478 62H18.6631C19.792 62 20.7045 61.3664 20.7045 60.5819V57.1512H44.2862V60.5791C44.2862 61.3637 45.2001 61.9972 46.3355 61.9972H53.1495C54.2823 61.9972 55.1936 61.3637 55.1936 60.5791V57.1512H56.207C57.3238 57.1512 58.2298 56.1945 58.2298 55.0211V51.694C58.2298 50.9891 57.8982 50.3695 57.3981 49.9779C57.8982 49.5933 58.2298 48.9695 58.2298 48.2647V39.9796C58.2298 38.802 57.3212 37.8495 56.207 37.8495H56.1592V31.6091H61.6335C62.0062 31.6091 62.3086 31.2916 62.3086 30.8987V27.3477H63.651C64.3991 27.3477 65 26.7113 65 25.9267V18.4696C65 17.6864 64.3978 17.05 63.6537 17.05ZM8.84079 30.191H4.03639V27.3491H5.38141C6.12687 27.3491 6.72908 26.7127 6.72908 25.9295V18.471C6.72908 17.6864 6.12687 17.0514 5.38141 17.0514H4.03639V14.2109H8.83946L8.84079 30.191ZM11.8147 55.3736C10.7907 55.3736 9.96164 54.4995 9.96164 53.4212C9.96164 52.3429 10.7933 51.4702 11.8147 51.4702C12.8361 51.4702 13.6664 52.3443 13.6664 53.4212C13.6664 54.5023 12.8374 55.3736 11.8147 55.3736ZM16.7531 55.3736C15.729 55.3736 14.9013 54.4995 14.9013 53.4212C14.9013 52.3429 15.7317 51.4702 16.7531 51.4702C17.7771 51.4702 18.6048 52.3443 18.6048 53.4212C18.6048 54.5023 17.7771 55.3736 16.7531 55.3736ZM18.9138 47.3262H9.93245V41.5264H18.9138V47.3262ZM43.164 50.2241H21.832V47.6437H43.164V50.2241ZM43.164 46.1542H21.832V42.9207H43.164V46.1542ZM43.164 41.4285H21.832V38.1964H43.164V41.4285ZM43.164 36.7069H21.832V33.4762H43.164V36.7069ZM12.8825 23.3953V8.26283H52.1149V23.3953H12.8825ZM48.2469 55.3736C47.2189 55.3736 46.3952 54.4995 46.3952 53.4212C46.3952 52.3429 47.2243 51.4702 48.2469 51.4702C49.2696 51.4702 50.0973 52.3443 50.0973 53.4212C50.0973 54.5023 49.271 55.3736 48.2469 55.3736ZM53.1827 55.3736C52.16 55.3736 51.3336 54.4995 51.3336 53.4212C51.3336 52.3429 52.1626 51.4702 53.1827 51.4702C54.2107 51.4702 55.037 52.3443 55.037 53.4212C55.037 54.5023 54.2054 55.3736 53.1827 55.3736ZM55.0636 47.3262H46.0822V41.5264H55.0636V47.3262ZM60.9596 17.05H59.612C58.8665 17.05 58.2669 17.6864 58.2669 18.471V25.9281C58.2669 26.7127 58.8652 27.3491 59.612 27.3491H60.9596V30.1896H56.1526V14.2095H60.9596V17.05Z" fill="#F2F2F2"/>
</svg>
